{
    "Beast":{
        "Min1":"Red",
        "Min2":"Green",
        "Anti":"Purple"
    },
    "Gremlin":{
        "Min1":"Red",
        "Min2":"Blue",
        "Anti":"Purple"
    },
    "Fire":{
        "Min1":"Red",
        "Min2":"Yellow",
        "Anti":"Blue"
    },
    "Fiend":{
        "Min1":"Red",
        "Min2":"Purple",
        "Anti":"Yellow"
    },
    "Freeze":{
        "Min1":"Green",
        "Min2":"Blue",
        "Anti":"Red"
    },
    "Slime":{
        "Min1":"Green",
        "Min2":"Yellow",
        "Anti":"Red"
    },
    "Poison":{
        "Min1":"Green",
        "Min2":"Purple",
        "Anti":"Yellow"
    },
    "Shock":{
        "Min1":"Blue",
        "Min2":"Purple",
        "Anti":"Green"
    },
    "Construct":{
        "Min1":"Blue",
        "Min2":"Yellow",
        "Anti":"Green"
    },
    "Undead":{
        "Min1":"Yellow",
        "Min2":"Purple",
        "Anti":"Blue"
    },
    "Anti-Beast":{"Anti":"Beast"},
    "Anti-Gremlin":{"Anti":"Gremlin"},
    "Anti-Fire":{"Anti":"Fire"},
    "Anti-Fiend":{"Anti":"Fiend"},
    "Anti-Freeze":{"Anti":"Freeze"},
    "Anti-Slime":{"Anti":"Slime"},
    "Anti-Poison":{"Anti":"Poison"},
    "Anti-Shock":{"Anti":"Shock"},
    "Anti-Construct":{"Anti":"Construct"},
    "Anti-Undead":{"Anti":"Undead"}
}